This is pdfTeX, Version 3.14159265-2.6-1.40.17 (TeX Live 2016/Arch Linux) (preloaded format=pdflatex 2017.2.1)  5 JUN 2017 13:24
entering extended mode
 restricted \write18 enabled.
 %&-line parsing enabled.
**myfile.tex

! Emergency stop.
<*> myfile.tex
              
End of file on the terminal!

 
Here is how much of TeX's memory you used:
 3 strings out of 493013
 112 string characters out of 6139318
 53632 words of memory out of 5000000
 3649 multiletter control sequences out of 15000+600000
 3640 words of font info for 14 fonts, out of 8000000 for 9000
 1141 hyphenation exceptions out of 8191
 0i,0n,0p,1b,6s stack positions out of 5000i,500n,10000p,200000b,80000s
!  ==> Fatal error occurred, no output PDF file produced!
